cod_uni_acad,uni_acad,anio,egre,ingre,postu,ejec
1,"Facultad de Arquitectura, Diseño y Artes",2010,44,360,715,18708455866
2,Facultad de Ciencias Agrarias,2010,351,607,1389,39599908138
3,Facultad de Ciencias Económicas,2010,846,1418,2832,41367904226
4,Facultad de Ciencias Exactas y Naturales,2010,148,541,534,19467950803
5,Facultad de Ciencias Médicas,2010,176,232,964,214116506290
6,Facultad de Ciencias Químicas,2010,142,182,470,16269253412
7,Facultad de Ciencias Veterinarias,2010,177,483,608,35508603688
8,Facultad de Derecho y Ciencias Sociales,2010,1558,1345,1769,27277023855
9,Facultad de Filosofia,2010,357,767,1066,22941610394
10,Facultad de Ingeniería,2010,90,253,406,24323862848
11,Facultad de Odontología,2010,40,61,267,10265565684
12,Facultad Politécnica,2010,169,544,1298,35940187301
13,"Instituto ""Dr. Andrés Barbero""",2010,179,356,605,15103815278
14,Instituto de Trabajo Social,2010,0,0,0,0
1,"Facultad de Arquitectura, Diseño y Artes",2011,126,404,744,23484184250
2,Facultad de Ciencias Agrarias,2011,366,616,1658,46750186796
3,Facultad de Ciencias Económicas,2011,960,1583,2925,48459534446
4,Facultad de Ciencias Exactas y Naturales,2011,161,542,556,27389892307
5,Facultad de Ciencias Médicas,2011,194,224,1015,228721244426
6,Facultad de Ciencias Químicas,2011,188,277,803,17707599700
7,Facultad de Ciencias Veterinarias,2011,234,396,696,43926029115
8,Facultad de Derecho y Ciencias Sociales,2011,1543,1360,2109,32875587816
9,Facultad de Filosofia,2011,366,792,1029,27008836032
10,Facultad de Ingeniería,2011,160,170,448,31383848268
11,Facultad de Odontología,2011,51,61,268,12975329763
12,Facultad Politécnica,2011,184,570,1297,44338939195
13,"Instituto ""Dr. Andrés Barbero""",2011,176,294,639,20810593388
14,Instituto de Trabajo Social,2011,0,0,0,0
1,"Facultad de Arquitectura, Diseño y Artes",2012,77,461,958,31403986082
2,Facultad de Ciencias Agrarias,2012,430,635,1676,52103157762
3,Facultad de Ciencias Económicas,2012,899,1526,3086,55712000391
4,Facultad de Ciencias Exactas y Naturales,2012,177,555,588,31848597208
5,Facultad de Ciencias Médicas,2012,175,240,933,342765755523
6,Facultad de Ciencias Químicas,2012,234,230,488,18498121838
7,Facultad de Ciencias Veterinarias,2012,207,443,725,56524582309
8,Facultad de Derecho y Ciencias Sociales,2012,802,1105,1596,42979555625
9,Facultad de Filosofia,2012,299,779,985,31521764945
10,Facultad de Ingeniería,2012,123,291,328,42609516804
11,Facultad de Odontología,2012,55,114,407,13798684017
12,Facultad Politécnica,2012,235,508,1311,54786143898
13,"Instituto ""Dr. Andrés Barbero""",2012,250,317,615,26338572870
14,Instituto de Trabajo Social,2012,22,58,67,0
1,"Facultad de Arquitectura, Diseño y Artes",2013,83,499,1242,31442258647
2,Facultad de Ciencias Agrarias,2013,400,461,1175,53944445312
3,Facultad de Ciencias Económicas,2013,974,1442,2881,60455046453
4,Facultad de Ciencias Exactas y Naturales,2013,162,590,630,34074838880
5,Facultad de Ciencias Médicas,2013,209,240,992,383237297044
6,Facultad de Ciencias Químicas,2013,212,231,663,22499432277
7,Facultad de Ciencias Veterinarias,2013,295,599,819,58392378763
8,Facultad de Derecho y Ciencias Sociales,2013,1015,1257,1653,61344638254
9,Facultad de Filosofia,2013,231,682,1062,34133805029
10,Facultad de Ingeniería,2013,147,295,371,44890365081
11,Facultad de Odontología,2013,52,62,364,15383065396
12,Facultad Politécnica,2013,206,484,1391,63033018912
13,"Instituto ""Dr. Andrés Barbero""",2013,253,377,628,27682462579
14,Instituto de Trabajo Social,2013,51,50,53,0
1,"Facultad de Arquitectura, Diseño y Artes",2014,46,460,1333,36772249136
2,Facultad de Ciencias Agrarias,2014,367,636,1657,53589283711
3,Facultad de Ciencias Económicas,2014,939,1610,2736,0
4,Facultad de Ciencias Exactas y Naturales,2014,154,515,540,38675457456
5,Facultad de Ciencias Médicas,2014,111,286,1100,419492614347
6,Facultad de Ciencias Químicas,2014,132,213,499,20343277005
7,Facultad de Ciencias Veterinarias,2014,270,551,785,66712069262
8,Facultad de Derecho y Ciencias Sociales,2014,865,1425,1721,62013455339
9,Facultad de Filosofia,2014,455,776,1427,34791701221
10,Facultad de Ingeniería,2014,163,412,501,57121641391
11,Facultad de Odontología,2014,52,62,361,15111930031
12,Facultad Politécnica,2014,179,716,1201,67131909740
13,"Instituto ""Dr. Andrés Barbero""",2014,204,411,568,32744910102
14,Instituto de Trabajo Social,2014,25,51,70,0
